graph TD
  openloops(openloops) --> olinterface
  global_def --> olinterface
  collier(collier) --> functions
  global_def --> functions

  functions --> phase_space
  olinterface --> pgmatel

  subgraph " "
      pgmatel["{pg}_mat_el"] --> pg["{pg}"]
  end

  pg --> mat_el
  mat_el --> integrands
  functions --> user

  phase_space --> integrands
  user --> integrands
  integrands --> test
  integrands --> mcmule
  vegas --> test
  vegas --> mcmule

  phase_space -.->|"ksoft"| pgmatel
  user -.-> |"metadata"| vegas
  vegas -.-> |"bin_it"| integrands
